{
    "statusCode": 200,
    "success": true,
    "message": "Updates Company Payments Successfully!",
    "data": {
        "orders": [
            {
                "_id": "68bec36d112a72f2df7825cf",
                "mealType": "Dinner",
                "date": "2025-09-23T00:00:00.000Z",
                "status": "pending",
                "paymentStatus": "Paid",
                "menuPrice": 100
            },
            {
                "_id": "68bec3fac86a28c26dc3b83f",
                "mealType": "Dinner",
                "date": "2025-09-30T00:00:00.000Z",
                "status": "complete",
                "paymentStatus": "Paid",
                "menuPrice": 100
            },
            {
                "_id": "68bec474c86a28c26dc3b847",
                "mealType": "Dinner",
                "date": "2025-09-30T00:00:00.000Z",
                "status": "cancel",
                "paymentStatus": "Paid",
                "menuPrice": 100
            },
            {
                "_id": "68bec50ac86a28c26dc3b85c",
                "mealType": "Dinner",
                "date": "2025-09-30T00:00:00.000Z",
                "status": "complete",
                "paymentStatus": "Paid",
                "menuPrice": 100
            },
            {
                "_id": "68bec53fc86a28c26dc3b866",
                "mealType": "Lunch",
                "date": "2025-09-24T00:00:00.000Z",
                "status": "pending",
                "paymentStatus": "Paid",
                "menuPrice": 100
            },
            {
                "_id": "68bec571c86a28c26dc3b872",
                "mealType": "Lunch",
                "date": "2025-09-24T00:00:00.000Z",
                "status": "pending",
                "paymentStatus": "Paid",
                "menuPrice": 100
            },
            {
                "_id": "68c011645e9344f4fad164b1",
                "mealType": "Dinner",
                "date": "2025-09-29T00:00:00.000Z",
                "status": "pending",
                "paymentStatus": "Paid",
                "menuPrice": 99
            },
            {
                "_id": "68c011645e9344f4fad164b5",
                "mealType": "Dinner",
                "date": "2025-09-29T00:00:00.000Z",
                "status": "pending",
                "paymentStatus": "Paid",
                "menuPrice": 99
            },
            {
                "_id": "68c011655e9344f4fad164b9",
                "mealType": "Dinner",
                "date": "2025-09-29T00:00:00.000Z",
                "status": "pending",
                "paymentStatus": "Paid",
                "menuPrice": 99
            },
            {
                "_id": "68c011675e9344f4fad164bd",
                "mealType": "Dinner",
                "date": "2025-09-29T00:00:00.000Z",
                "status": "pending",
                "paymentStatus": "Paid",
                "menuPrice": 99
            }
        ],
        "pagination": {
            "page": 1,
            "limit": 10,
            "total": 22,
            "totalPage": 3
        }
    }
}